sui1
…
masterdata %>% 
  filter(!year==2016) -> masterdata

##Czyszczenie danych - Country

masterdata %>% 
  select(country) %>% 
  group_by(country) %>% 
  summarise(l_obserwacji=n()) %>%
  arrange(l_obserwacji)

## `summarise()` ungrouping output (override with `.groups` argument)

## # A tibble: 100 x 2
##    country                l_obserwacji
##    <chr>                         <int>
##  1 Cabo Verde                       12
##  2 Dominica                         12
##  3 Macau                            12
##  4 Bosnia and Herzegovina           24
##  5 Oman                             36
##  6 Saint Kitts and Nevis            36
##  7 San Marino                       36
##  8 Nicaragua                        72
##  9 United Arab Emirates             72
## 10 Turkey                           84
## # ... with 90 more rows
…
